{"success":true,"message":"Deal record found successfully","pagination":{"total":212,"current_page":1,"per_page":1,"totalPages":212},"data":[{"_id":"68efdcd154d6643d046231c9","listing_id":"6Q8Z7V5R","listing_type":"others","inverter_sector_type":"","other_specification":[{"add_field":"","add_value":"","_id":"6929ed81c1b2b6513d1b6d7b"}],"isFeatured":false,"featuredAt":null,"tags":"3010168,Top Rack Tech Wire Management (Priced as Box of 20 Pcs)","title":"Top Rack Grounding Lug 2","brand":"Top Rack","category":"Racking & Mounts","sub_category":"Fastening elements","part_no":"3010402","product_description":"<p><img src=\"https://media.sunhub.com/pictures/item/1734719007734-(1)_80dc9ea4.jpg\"></p><h2><strong>Top Rack Grounding Lug 2</strong></h2><p> </p><blockquote><p><strong>Note: Orders must be placed in multiples of the box quantity (62 pcs per box).</strong></p></blockquote><p>Not limited by rail type, can be directly mounted on the module frame.</p><h3><strong>Product Details:</strong></h3><ul><li>Manufacturer: Top Rack Tech</li><li>Manufacturer Part No: 3010402</li><li>Weight: 2.392 lbs</li><li>Dimensions: 15 x 9 x 7.5 in</li><li>Case qty: 62 Pcs</li></ul>","product_age":"0","condition":"new","length":15,"width":9,"height":7.5,"weight":2.392,"wattage":null,"volts":null,"city":"Moorestown","state":"NJ","msrp":3.54,"isHotDeal":false,"hot_deal_date":"2025-11-28T18:44:17.363Z","pallet_quantity":null,"container_quantity":null,"investor_type":"","grid_voltage":"","output_voltage":null,"total_capacity":null,"nominal_voltage":null,"power_output":null,"output_current":null,"terms":{"incoterms":"EXW - Ex Works (Place)","connector_type":"","days_of_inspection":"","payment_terms":"<p>To Be Decided</p>","delivery_schedule":"<p>To Be Decided</p>","addOn":[{"service_type":null,"description":"","amount":null,"_id":"6929ed81c1b2b6513d1b6d7a"}],"shipping":"EXW - Ex Works (Place)","warranty":""},"question_and_answers":[],"sunhub_price":3.54,"moq":5456,"company_tier":"","attachments":[{"_id":"68efdd6f54d6643d04623408","categories":"Deal","user_login":"24630","original_name":"TRT Rail-less Base system_TRT 01 V1.22 01162025.pdf","file_size":492678,"type":"Document","path":"attachments/TRT-Rail-less-Base-system_TRT-01-V1.22-01162025_c539c8f2.pdf","file_name":"attachments/TRT-Rail-less-Base-system_TRT-01-V1.22-01162025_c539c8f2.pdf","createdAt":"2025-10-15T17:44:16.061Z","updatedAt":"2025-10-15T17:54:04.136Z","__v":0,"label":"TRT Rail-less Base system_TRT 01 V1.22 01162025.pdf","order":2},{"_id":"68efde4854d6643d0462383f","categories":"Deal","user_login":"24630","original_name":"3010402.jpg","file_size":48433,"type":"Image","path":"attachments/3010402_9ac48e50.jpg","file_name":"attachments/3010402_9ac48e50.jpg","createdAt":"2025-10-15T17:47:52.360Z","updatedAt":"2025-10-15T17:54:04.161Z","__v":0,"order":3}],"is_fpq":false,"quantity_calculator":"qoh","qoh":{"quantity":0},"quantity":0,"totalQty":0,"offers":[],"status":"OutOfStock","wind_load":"","snow_load":"","unit_length":"in","unit_height":"in","unit_width":"in","unit_panelWeight":"lb","inquireConfirm":false,"__v":14,"fpq":null,"deal_score":2,"ai_rules":"","sortKey":2,"tempFeaturedAt":null}]}